Pieplined_RISCV/Pieplined_RISCV.sim/sim_1/behav/xsim/ALU_tb.vcd
$date
   Thu Feb 26 11:20:50 2026
$end
$version
  2020.1
$end
$timescale
  1ps
$end
$scope module ALU_tb $end
$var reg 1 ! a $end
$var reg 1 " b $end
$var reg 1 # cin $end
$var reg 1 $ ainvert $end
$var reg 1 % binvert $end
$var reg 2 & operation [1:0] $end
$var wire 1 ' result $end
$var wire 1 ( cout $end
$scope module dut $end
$var wire 1 ) a $end
$var wire 1 * b $end
$var wire 1 + cin $end
$var wire 1 , ainvert $end
$var wire 1 - binvert $end
$var wire 2 . operation [1:0] $end
$var reg 1 / result $end
$var wire 1 ( cout $end
$var reg 1 0 a_in $end
$var reg 1 1 b_in $end
$var wire 1 2 and_result $end
$var wire 1 3 or_result $end
$var wire 1 4 xor_result $end
$var wire 1 5 sum $end
$scope module FA $end
$var wire 1 6 a $end
$var wire 1 7 b $end
$var wire 1 + cin $end
$var wire 1 5 sum $end
$var wire 1 ( cout $end
$upscope $end
$upscope $end
$upscope $end
$enddefinitions $end
#0
$dumpvars
0!
0"
0#
0$
0%
b0 &
0'
0(
0)
0*
0+
0,
0-
b0 .
0/
00
01
02
03
04
05
06
07
$end
#20000
1"
1*
0/
11
02
13
14
15
17
#40000
1!
0"
1)
0*
10
01
02
13
14
15
16
07
#60000
1"
1'
1(
1*
1/
11
12
13
04
05
17
#80000
0!
0"
b1 &
0'
0(
0)
0*
b1 .
0/
00
01
02
03
04
05
06
07
#100000
1"
1'
1*
1/
11
02
13
14
15
17
#120000
1!
0"
1)
0*
10
01
02
13
14
15
16
07
#140000
1"
1(
1*
1/
11
12
13
04
05
17
#160000
0!
0"
b10 &
0'
0(
0)
0*
b10 .
0/
00
01
02
03
04
05
06
07
#180000
1"
1'
1*
1/
11
02
13
14
15
17
#200000
1!
0"
1)
0*
10
01
02
13
14
15
16
07
#220000
1"
0'
1(
1*
0/
11
12
13
04
05
17
#240000
0!
0"
1#
b10 &
1'
0(
0)
0*
1+
1/
00
01
02
03
04
15
06
07
#260000
1"
0'
1(
1*
0/
11
02
13
14
05
17
#280000
1!
0"
1)
0*
10
01
02
13
14
05
16
07
#300000
1"
1'
1*
1/
11
12
13
04
15
17
#320000
0!
0"
1%
b10 &
0'
0)
0*
1-
0/
00
02
13
14
05
06
#340000
1"
1'
0(
1*
1/
01
02
03
04
15
07
#360000
1!
0"
1(
1)
0*
1/
10
11
12
13
04
15
16
17
#380000
1"
0'
1*
0/
01
02
13
14
05
07
#400000
0!
0"
0#
0%
b11 &
0(
0)
0*
0+
0-
b11 .
0/
00
02
03
04
05
06
#420000
1"
1'
1*
1/
11
02
13
14
15
17
#440000
1!
0"
1)
0*
10
01
02
13
14
15
16
07
