Pieplined_RISCV/Pieplined_RISCV.sim/sim_1/behav/xsim/InstructionMemory_tb.vcd
$date
   Sat Apr 11 12:39:02 2026
$end
$version
  2020.1
$end
$timescale
  1ps
$end
$scope module InstructionMemory_tb $end
$var reg 32 ! addr [31:0] $end
$var wire 32 " instr [31:0] $end
$scope module uut $end
$var wire 32 # instAddress [31:0] $end
$var reg 32 $ instruction [31:0] $end
$var parameter 32 % OPERAND_LENGTH [31:0] $end
$upscope $end
$scope task check $end
$var reg 32 & address [31:0] $end
$var reg 32 ' expected [31:0] $end
$upscope $end
$upscope $end
$enddefinitions $end
#0
$dumpvars
b0 !
b11111110000000000000100010011 "
b0 #
b11111110000000000000100010011 $
b11111 %
b0 &
b11111110000000000000100010011 '
$end
#10000
b100 !
b1000000000000000000010000010011 "
b100 #
b1000000000000000000010000010011 $
b100 &
b1000000000000000000010000010011 '
#20000
b1000 !
b1010010110111 "
b1000 #
b1010010110111 $
b1000 &
b1010010110111 '
#30000
b1100 !
b10000000000001001000010010010011 "
b1100 #
b10000000000001001000010010010011 $
b1100 &
b10000000000001001000010010010011 '
#40000
b10000 !
b1100100110111 "
b10000 #
b1100100110111 $
b10000 &
b1100100110111 '
#50000
b10100 !
b11000000000010010000100100010011 "
b10100 #
b11000000000010010000100100010011 $
b10100 &
b11000000000010010000100100010011 '
#60000
b11000 !
b1001010000000100011 "
b11000 #
b1001010000000100011 $
b11000 &
b1001010000000100011 '
#70000
b11100 !
b1000010001100000011 "
b11100 #
b1000010001100000011 $
b11100 &
b1000010001100000011 '
#80000
b100000 !
b11111110000000110000111011100011 "
b100000 #
b11111110000000110000111011100011 $
b100000 &
b11111110000000110000111011100011 '
#90000
b100100 !
b11001001010000000100011 "
b100100 #
b11001001010000000100011 $
b100100 &
b11001001010000000100011 '
#100000
b101000 !
b110000010100010011 "
b101000 #
b110000010100010011 $
b101000 &
b110000010100010011 '
#110000
b101100 !
b100000000000000011101111 "
b101100 #
b100000000000000011101111 $
b101100 &
b100000000000000011101111 '
#120000
b110000 !
b11111110100111111111000001101111 "
b110000 #
b11111110100111111111000001101111 $
b110000 &
b11111110100111111111000001101111 '
#130000
b110100 !
b11111111010000010000000100010011 "
b110100 #
b11111111010000010000000100010011 $
b110100 &
b11111111010000010000000100010011 '
#140000
b111000 !
b100010010010000100011 "
b111000 #
b100010010010000100011 $
b111000 &
b100010010010000100011 '
#150000
b111100 !
b100000010010001000100011 "
b111100 #
b100000010010001000100011 $
b111100 &
b100000010010001000100011 '
#160000
b1000000 !
b100100010010000000100011 "
b1000000 #
b100100010010000000100011 $
b1000000 &
b100100010010000000100011 '
#170000
b1000100 !
b1010000001110010011 "
b1000100 #
b1010000001110010011 $
b1000100 &
b1010000001110010011 '
#180000
b1001000 !
b10010010001100000011 "
b1001000 #
b10010010001100000011 $
b1001000 &
b10010010001100000011 '
#190000
b1001100 !
b110001101001100011 "
b1001100 #
b110001101001100011 $
b1001100 &
b110001101001100011 '
#200000
b1010000 !
b111000101001100011 "
b1010000 #
b111000101001100011 $
b1010000 &
b111000101001100011 '
#210000
b1010100 !
b11101001010000000100011 "
b1010100 #
b11101001010000000100011 $
b1010100 &
b11101001010000000100011 '
#220000
b1011000 !
b11111111111100111000001110010011 "
b1011000 #
b11111111111100111000001110010011 $
b1011000 &
b11111111111100111000001110010011 '
#230000
b1011100 !
b11111110110111111111000001101111 "
b1011100 #
b11111110110111111111000001101111 $
b1011100 &
b11111110110111111111000001101111 '
#240000
b1100000 !
b1001010000000100011 "
b1100000 #
b1001010000000100011 $
b1100000 &
b1001010000000100011 '
#250000
b1100100 !
b10010010010000011 "
b1100100 #
b10010010010000011 $
b1100100 &
b10010010010000011 '
#260000
b1101000 !
b10000010010010000000011 "
b1101000 #
b10000010010010000000011 $
b1101000 &
b10000010010010000000011 '
#270000
b1101100 !
b100000010010000010000011 "
b1101100 #
b100000010010000010000011 $
b1101100 &
b100000010010000010000011 '
#280000
b1110000 !
b110000010000000100010011 "
b1110000 #
b110000010000000100010011 $
b1110000 &
b110000010000000100010011 '
