Pieplined_RISCV/Pieplined_RISCV.sim/sim_1/behav/xsim/Task1_tb.vcd
$date
   Thu Apr 16 10:10:31 2026
$end
$version
  2020.1
$end
$timescale
  1ps
$end
$scope module Task1_tb $end
$var reg 1 ! clk $end
$var reg 1 " rst $end
$var reg 1 # PCSrc $end
$var reg 32 $ instruction [31:0] $end
$var wire 32 % PC [31:0] $end
$var wire 32 & PC_Plus4 [31:0] $end
$var wire 32 ' imm_out [31:0] $end
$var wire 32 ( BranchTarget [31:0] $end
$var wire 32 ) PC_Next [31:0] $end
$scope module u_pc $end
$var wire 1 * clk $end
$var wire 1 + rst $end
$var wire 32 ) PC_Next [31:0] $end
$var reg 32 , PC [31:0] $end
$upscope $end
$scope module u_pcAdder $end
$var wire 32 % PC [31:0] $end
$var wire 32 & PC_Plus4 [31:0] $end
$upscope $end
$scope module u_immGen $end
$var wire 32 - instruction [31:0] $end
$var reg 32 . imm_out [31:0] $end
$var wire 7 / opcode [6:0] $end
$var parameter 7 0 LOAD [6:0] $end
$var parameter 7 1 I_ARITH [6:0] $end
$var parameter 7 2 JALR [6:0] $end
$var parameter 7 3 STORE [6:0] $end
$var parameter 7 4 BRANCH [6:0] $end
$upscope $end
$scope module u_branchAdder $end
$var wire 32 % PC [31:0] $end
$var wire 32 ' imm [31:0] $end
$var wire 32 ( BranchTarget [31:0] $end
$upscope $end
$scope module u_mux2 $end
$var wire 1 5 sel $end
$var wire 32 & in0 [31:0] $end
$var wire 32 ( in1 [31:0] $end
$var reg 32 6 out [31:0] $end
$upscope $end
$upscope $end
$enddefinitions $end
#0
$dumpvars
0!
1"
0#
b0 $
bx %
bx &
b0 '
bx (
bx )
0*
1+
bx ,
b0 -
b0 .
b0 /
b11 0
b10011 1
b1100111 2
b100011 3
b1100011 4
05
bx 6
$end
#5000
1!
b0 %
b100 &
b0 (
b100 )
1*
b0 ,
b100 6
#10000
0!
0*
#15000
1!
1*
#20000
0!
0*
#25000
1!
0"
b100 %
b1000 &
b100 (
b1000 )
1*
0+
b100 ,
b1000 6
#30000
0!
0*
#35000
1!
b1000 %
b1100 &
b1000 (
b1100 )
1*
b1000 ,
b1100 6
#40000
0!
0*
#45000
1!
b1100 %
b10000 &
b1100 (
b10000 )
1*
b1100 ,
b10000 6
#50000
0!
0*
#55000
1!
b10000 %
b10100 &
b10000 (
b10100 )
1*
b10000 ,
b10100 6
#60000
0!
0*
#65000
1!
b10100 %
b11000 &
b10100 (
b11000 )
1*
b10100 ,
b11000 6
#70000
0!
0*
#75000
1!
b110010000000000000010010011 $
b11000 %
b11100 &
b1100100 '
b11100000 (
b11100 )
1*
b11000 ,
b110010000000000000010010011 -
b1100100 .
b10011 /
b11100 6
#80000
0!
0*
#85000
1!
b11100 %
b100000 &
b11100100 (
b100000 )
1*
b11100 ,
b100000 6
#90000
0!
0*
#95000
1!
b11111111110000000000000010010011 $
b100000 %
b100100 &
b11111111111111111111111111111100 '
b11000 (
b100100 )
1*
b100000 ,
b11111111110000000000000010010011 -
b11111111111111111111111111111100 .
b100100 6
#100000
0!
0*
#105000
1!
b100100 %
b101000 &
b11100 (
b101000 )
1*
b100100 ,
b101000 6
#110000
0!
0*
#115000
1!
b100010010010000100011 $
b101000 %
b101100 &
b1000 '
b111000 (
b101100 )
1*
b101000 ,
b100010010010000100011 -
b1000 .
b100011 /
b101100 6
#120000
0!
0*
#125000
1!
b101100 %
b110000 &
b111100 (
b110000 )
1*
b101100 ,
b110000 6
#130000
0!
0*
#135000
1!
b11111110000100010010111010100011 $
b110000 %
b110100 &
b11111111111111111111111111111101 '
b101010 (
b110100 )
1*
b110000 ,
b11111110000100010010111010100011 -
b11111111111111111111111111111101 .
b110100 6
#140000
0!
0*
#145000
1!
b110100 %
b111000 &
b101110 (
b111000 )
1*
b110100 ,
b111000 6
#150000
0!
0*
#155000
1!
b100000000000000000001100011 $
b111000 %
b111100 &
b100000 '
b1111000 (
b111100 )
1*
b111000 ,
b100000000000000000001100011 -
b100000 .
b1100011 /
b111100 6
#160000
0!
0*
#165000
1!
b111100 %
b1000000 &
b1111100 (
b1000000 )
1*
b111100 ,
b1000000 6
#170000
0!
0*
#175000
1!
b11111110000000000000110011100011 $
b1000000 %
b1000100 &
b11111111111111111111111111111100 '
b111000 (
b1000100 )
1*
b1000000 ,
b11111110000000000000110011100011 -
b11111111111111111111111111111100 .
b1000100 6
#180000
0!
0*
#185000
1!
b1000100 %
b1001000 &
b111100 (
b1001000 )
1*
b1000100 ,
b1001000 6
#190000
0!
0*
#195000
1!
1#
b100000000000000000001100011 $
b1001000 %
b1001100 &
b100000 '
b10001000 (
b10001000 )
1*
b1001000 ,
b100000000000000000001100011 -
b100000 .
15
b10001000 6
#200000
0!
0*
#205000
1!
b10001000 %
b10001100 &
b11001000 (
b11001000 )
1*
b10001000 ,
b11001000 6
#210000
0!
0*
#215000
1!
b11001000 %
b11001100 &
b100001000 (
b100001000 )
1*
b11001000 ,
b100001000 6
#220000
0!
0*
#225000
1!
b100001000 %
b100001100 &
b101001000 (
b101001000 )
1*
b100001000 ,
b101001000 6
#230000
0!
0*
#235000
1!
0#
b0 $
b101001000 %
b101001100 &
b0 '
b101001000 (
b101001100 )
1*
b101001000 ,
b0 -
b0 .
b0 /
05
b101001100 6
#240000
0!
0*
#245000
1!
b101001100 %
b101010000 &
b101001100 (
b101010000 )
1*
b101001100 ,
b101010000 6
#250000
0!
0*
#255000
1!
b101010000 %
b101010100 &
b101010000 (
b101010100 )
1*
b101010000 ,
b101010100 6
#260000
0!
0*
#265000
1!
b101010100 %
b101011000 &
b101010100 (
b101011000 )
1*
b101010100 ,
b101011000 6
#270000
0!
0*
#275000
1!
1"
b0 %
b100 &
b0 (
b100 )
1*
1+
b0 ,
b100 6
#280000
0!
0*
#285000
1!
1*
#290000
0!
0*
#295000
1!
1*
#300000
0!
0*
#305000
1!
0"
b100 %
b1000 &
b100 (
b1000 )
1*
0+
b100 ,
b1000 6
#310000
0!
0*
#315000
1!
b1000 %
b1100 &
b1000 (
b1100 )
1*
b1000 ,
b1100 6
#320000
0!
0*
#325000
1!
b1100 %
b10000 &
b1100 (
b10000 )
1*
b1100 ,
b10000 6
#330000
0!
0*
#335000
1!
b10000 %
b10100 &
b10000 (
b10100 )
1*
b10000 ,
b10100 6
#340000
0!
0*
#345000
1!
b10100 %
b11000 &
b10100 (
b11000 )
1*
b10100 ,
b11000 6
