Pieplined_RISCV/Pieplined_RISCV.sim/sim_1/behav/xsim/tb_Control.vcd
$date
   Sat Apr 11 10:56:53 2026
$end
$version
  2020.1
$end
$timescale
  1ps
$end
$scope module tb_Control $end
$var reg 7 ! opcode [6:0] $end
$var reg 3 " funct3 [2:0] $end
$var reg 7 # funct7 [6:0] $end
$var wire 1 $ RegWrite $end
$var wire 1 % ALUSrc $end
$var wire 1 & MemRead $end
$var wire 1 ' MemWrite $end
$var wire 1 ( MemtoReg $end
$var wire 1 ) Branch $end
$var wire 2 * ALUOp [1:0] $end
$var wire 4 + ALUControl [3:0] $end
$scope module u_main $end
$var wire 7 , opcode [6:0] $end
$var reg 1 - RegWrite $end
$var reg 1 . ALUSrc $end
$var reg 1 / MemRead $end
$var reg 1 0 MemWrite $end
$var reg 1 1 MemtoReg $end
$var reg 1 2 Branch $end
$var reg 2 3 ALUOp [1:0] $end
$var parameter 7 4 R_TYPE [6:0] $end
$var parameter 7 5 I_ARITH [6:0] $end
$var parameter 7 6 LOAD [6:0] $end
$var parameter 7 7 STORE [6:0] $end
$var parameter 7 8 BRANCH [6:0] $end
$upscope $end
$scope module u_alu_ctrl $end
$var wire 2 * ALUOp [1:0] $end
$var wire 3 9 funct3 [2:0] $end
$var wire 7 : funct7 [6:0] $end
$var reg 4 ; ALUControl [3:0] $end
$upscope $end
$upscope $end
$enddefinitions $end
#0
$dumpvars
b110011 !
b0 "
b0 #
1$
0%
0&
0'
0(
0)
b10 *
b10 +
b110011 ,
1-
0.
0/
00
01
02
b10 3
b110011 4
b10011 5
b11 6
b100011 7
b1100011 8
b0 9
b0 :
b10 ;
$end
#10000
b110011 !
b0 "
b100000 #
b110 +
b100000 :
b110 ;
#20000
b110011 !
b1 "
b0 #
b100 +
b1 9
b0 :
b100 ;
#30000
b110011 !
b101 "
b0 #
b101 +
b101 9
b101 ;
#40000
b110011 !
b111 "
b0 #
b0 +
b111 9
b0 ;
#50000
b110011 !
b110 "
b0 #
b1 +
b110 9
b1 ;
#60000
b110011 !
b100 "
b0 #
b100 9
b1 ;
#70000
b10011 !
b0 "
b0 #
1%
b11 *
b10 +
b10011 ,
1-
1.
0/
00
01
02
b11 3
b0 9
b10 ;
#80000
b11 !
b10 "
b0 #
1&
1(
b0 *
b11 ,
1-
1.
1/
00
11
02
b0 3
b10 9
b10 ;
#90000
b11 !
b1 "
b0 #
b1 9
b10 ;
#100000
b11 !
b0 "
b0 #
b0 9
b10 ;
#110000
b100011 !
b10 "
b0 #
0$
0&
1'
0(
b100011 ,
0-
1.
0/
10
01
02
b0 3
b10 9
b10 ;
#120000
b100011 !
b1 "
b0 #
b1 9
b10 ;
#130000
b100011 !
b0 "
b0 #
b0 9
b10 ;
