Pieplined_RISCV/Pieplined_RISCV.sim/sim_1/behav/xsim/tb_fsm_top.vcd
$date
   Thu Feb 26 10:47:19 2026
$end
$version
  2020.1
$end
$timescale
  1ps
$end
$scope module tb_fsm_top $end
$var reg 1 ! clk $end
$var reg 1 " btn_reset_raw $end
$var reg 16 # sw_raw [15:0] $end
$var wire 16 $ led_out [15:0] $end
$var integer 32 % pass_count $end
$var integer 32 & fail_count $end
$var parameter 32 ' CLK_DIV_SIM [31:0] $end
$var parameter 32 ( DEBOUNCE_SIM [31:0] $end
$var parameter 32 ) SLOW_PERIOD [31:0] $end
$scope module dut $end
$var wire 1 * clk $end
$var wire 1 + btn_reset_raw $end
$var wire 16 , sw_raw [15:0] $end
$var reg 16 - led_out [15:0] $end
$var wire 1 . slow_clk $end
$var wire 1 / btn_reset $end
$var wire 32 0 sw_synced_bus [31:0] $end
$var wire 16 1 sw_synced [15:0] $end
$var wire 32 2 led_module_readData_nc [31:0] $end
$var reg 1 3 state $end
$var reg 16 4 counter_reg [15:0] $end
$var reg 16 5 sw_prev [15:0] $end
$var reg 16 6 count_latch [15:0] $end
$var parameter 32 7 CLK_DIV_MAX [31:0] $end
$var parameter 32 8 DEBOUNCE_STAB [31:0] $end
$var parameter 0 9 WAIT $end
$var parameter 0 : COUNT $end
$scope module u_clkdiv $end
$var wire 1 * clk $end
$var wire 1 ; rst $end
$var wire 1 . slow_clk $end
$var reg 3 < count [2:0] $end
$var parameter 32 = MAX_COUNT [31:0] $end
$upscope $end
$scope module u_debouncer $end
$var wire 1 * clk $end
$var wire 1 + pbin $end
$var reg 1 > pbout $end
$var reg 2 ? stable_cnt [1:0] $end
$var reg 1 @ prev_in $end
$var parameter 32 A STABLE_MAX [31:0] $end
$upscope $end
$scope module u_switch_ $end
$var wire 1 * clk $end
$var wire 1 / rst $end
$var wire 16 B btns [15:0] $end
$var wire 32 C writeData [31:0] $end
$var wire 1 D writeEnable $end
$var wire 1 E readEnable $end
$var wire 30 F memAddress [29:0] $end
$var wire 16 , switches [15:0] $end
$var reg 32 G readData [31:0] $end
$var reg 16 H sync_stage1 [15:0] $end
$upscope $end
$scope module u_led_ $end
$var wire 1 * clk $end
$var wire 1 / rst $end
$var wire 32 I writeData [31:0] $end
$var wire 1 J writeEnable $end
$var wire 1 K readEnable $end
$var wire 30 L memAddress [29:0] $end
$var reg 32 M readData [31:0] $end
$var reg 16 N leds [15:0] $end
$upscope $end
$upscope $end
$scope begin test2_block $end
$var integer 32 O step $end
$var integer 32 P expected_val $end
$upscope $end
$scope task wait_cycles $end
$var integer 32 Q n $end
$var integer 32 R i $end
$upscope $end
$scope task wait_slow $end
$var integer 32 S n $end
$var integer 32 T i $end
$upscope $end
$scope task check_led $end
$var reg 16 U expected [15:0] $end
$var reg 64 V test_id [63:0] $end
$upscope $end
$scope task press_reset $end
$upscope $end
$upscope $end
$enddefinitions $end
#0
$dumpvars
0!
0"
b0 #
bx $
b0 %
b0 &
b101 '
b11 (
b101 )
0*
0+
b0 ,
bx -
0.
0/
bx 0
bx 1
b0 2
x3
bx 4
bx 5
bx 6
b101 7
b11 8
09
1:
0;
b0 <
b101 =
0>
b0 ?
0@
b11 A
b0 B
b0 C
0D
1E
b0 F
bx G
bx H
b0 I
0J
0K
b0 L
b0 M
bx N
bx O
bx P
b1010 Q
b0 R
bx S
bx T
bx U
bx V
$end
#5000
1!
b0 $
1*
b0 -
0.
b0xxxxxxxxxxxxxxxx 0
03
b1 <
b1 ?
b0xxxxxxxxxxxxxxxx G
b0 H
b1 R
#10000
0!
0*
#15000
1!
1*
0.
b0 0
b0 1
b10 <
b10 ?
b0 G
b10 R
#20000
0!
0*
#25000
1!
1*
0.
b0 5
b11 <
b11 ?
b11 R
#30000
0!
0*
#35000
1!
1*
1.
b100 <
0>
b100 R
#40000
0!
0*
#45000
1!
1*
0.
b0 <
0>
b101 R
#50000
0!
0*
#55000
1!
1*
0.
b1 <
0>
b110 R
#60000
0!
0*
#65000
1!
1*
0.
b10 <
0>
b111 R
#70000
0!
0*
#75000
1!
1*
0.
b11 <
0>
b1000 R
#80000
0!
0*
#85000
1!
1*
1.
b100 <
0>
b1001 R
#90000
0!
0*
#95000
1!
b0 #
1*
0.
b0 <
0>
b1010 R
b11 S
b0 T
#100000
0!
0*
#105000
1!
1*
0.
b1 <
0>
#110000
0!
0*
#115000
1!
1*
0.
b10 <
0>
#120000
0!
0*
#125000
1!
1*
0.
b11 <
0>
#130000
0!
0*
#135000
1!
1*
1.
b100 <
0>
#140000
0!
0*
#145000
1!
1*
0.
b0 <
0>
b1 Q
b0 R
#150000
0!
0*
#155000
1!
1*
0.
b1 <
0>
b1 R
b1 T
#160000
0!
0*
#165000
1!
1*
0.
b10 <
0>
#170000
0!
0*
#175000
1!
1*
0.
b11 <
0>
#180000
0!
0*
#185000
1!
1*
1.
b100 <
0>
#190000
0!
0*
#195000
1!
1*
0.
b0 <
0>
b0 R
#200000
0!
0*
#205000
1!
1*
0.
b1 <
0>
b1 R
b10 T
#210000
0!
0*
#215000
1!
1*
0.
b10 <
0>
#220000
0!
0*
#225000
1!
1*
0.
b11 <
0>
#230000
0!
0*
#235000
1!
1*
1.
b100 <
0>
#240000
0!
0*
#245000
1!
1*
0.
b0 <
0>
b0 R
#250000
0!
0*
#255000
1!
1*
0.
b1 <
0>
b1 R
b11 T
b0 U
b1 V
#260000
0!
0*
#265000
1!
1*
0.
b10 <
0>
#266000
b1 %
#270000
0!
0*
#275000
1!
1*
0.
b11 <
0>
#276000
b111 #
b10 %
b111 ,
b11 Q
b0 R
#280000
0!
0*
#285000
1!
1*
1.
b100 <
0>
b111 H
b1 R
#290000
0!
0*
#295000
1!
1*
0.
b111 0
b111 1
b0 <
0>
b111 G
b10 R
#300000
0!
0*
#305000
1!
b0 #
1*
b0 ,
0.
13
b111 4
b111 5
b111 6
b1 <
0>
b0 H
b111 O
b11 R
b1 S
b0 T
#310000
0!
0*
#315000
1!
b111 $
1*
b111 -
0.
b0 0
b0 1
b10 <
0>
b0 G
#320000
0!
0*
#325000
1!
1*
0.
b0 5
b11 <
0>
#330000
0!
0*
#335000
1!
1*
1.
b100 <
0>
#340000
0!
0*
#345000
1!
1*
0.
b110 4
b0 <
0>
b1 Q
b0 R
#350000
0!
0*
#355000
1!
b110 $
1*
b110 -
0.
b1 <
0>
b10 Q
b0 R
b1 T
#360000
0!
0*
#365000
1!
1*
0.
b10 <
0>
b1 R
#370000
0!
0*
#375000
1!
b11 %
1*
0.
b11 <
0>
b110 O
b110 P
b10 R
b0 T
#380000
0!
0*
#385000
1!
1*
1.
b100 <
0>
#390000
0!
0*
#395000
1!
1*
0.
b101 4
b0 <
0>
b1 Q
b0 R
#400000
0!
0*
#405000
1!
b101 $
1*
b101 -
0.
b1 <
0>
b10 Q
b0 R
b1 T
#410000
0!
0*
#415000
1!
1*
0.
b10 <
0>
b1 R
#420000
0!
0*
#425000
1!
b100 %
1*
0.
b11 <
0>
b101 O
b101 P
b10 R
b0 T
#430000
0!
0*
#435000
1!
1*
1.
b100 <
0>
#440000
0!
0*
#445000
1!
1*
0.
b100 4
b0 <
0>
b1 Q
b0 R
#450000
0!
0*
#455000
1!
b100 $
1*
b100 -
0.
b1 <
0>
b10 Q
b0 R
b1 T
#460000
0!
0*
#465000
1!
1*
0.
b10 <
0>
b1 R
#470000
0!
0*
#475000
1!
b101 %
1*
0.
b11 <
0>
b100 O
b100 P
b10 R
b0 T
#480000
0!
0*
#485000
1!
1*
1.
b100 <
0>
#490000
0!
0*
#495000
1!
1*
0.
b11 4
b0 <
0>
b1 Q
b0 R
#500000
0!
0*
#505000
1!
b11 $
1*
b11 -
0.
b1 <
0>
b10 Q
b0 R
b1 T
#510000
0!
0*
#515000
1!
1*
0.
b10 <
0>
b1 R
#520000
0!
0*
#525000
1!
b110 %
1*
0.
b11 <
0>
b11 O
b11 P
b10 R
b0 T
#530000
0!
0*
#535000
1!
1*
1.
b100 <
0>
#540000
0!
0*
#545000
1!
1*
0.
b10 4
b0 <
0>
b1 Q
b0 R
#550000
0!
0*
#555000
1!
b10 $
1*
b10 -
0.
b1 <
0>
b10 Q
b0 R
b1 T
#560000
0!
0*
#565000
1!
1*
0.
b10 <
0>
b1 R
#570000
0!
0*
#575000
1!
b111 %
1*
0.
b11 <
0>
b10 O
b10 P
b10 R
b0 T
#580000
0!
0*
#585000
1!
1*
1.
b100 <
0>
#590000
0!
0*
#595000
1!
1*
0.
b1 4
b0 <
0>
b1 Q
b0 R
#600000
0!
0*
#605000
1!
b1 $
1*
b1 -
0.
b1 <
0>
b10 Q
b0 R
b1 T
#610000
0!
0*
#615000
1!
1*
0.
b10 <
0>
b1 R
#620000
0!
0*
#625000
1!
b1000 %
1*
0.
b11 <
0>
b1 O
b1 P
b10 R
b0 T
#630000
0!
0*
#635000
1!
1*
1.
b100 <
0>
#640000
0!
0*
#645000
1!
b0 $
1*
b0 -
0.
03
b0 4
b0 <
0>
b1 Q
b0 R
#650000
0!
0*
#655000
1!
1*
0.
b1 <
0>
b10 Q
b0 R
b1 T
#660000
0!
0*
#665000
1!
1*
0.
b10 <
0>
b1 R
#670000
0!
0*
#675000
1!
b1001 %
1*
0.
b11 <
0>
b0 O
b0 P
b10 R
b10 S
b0 T
#680000
0!
0*
#685000
1!
1*
1.
b100 <
0>
#690000
0!
0*
#695000
1!
1*
0.
b0 <
0>
b1 Q
b0 R
#700000
0!
0*
#705000
1!
1*
0.
b1 <
0>
b1 R
b1 T
#710000
0!
0*
#715000
1!
1*
0.
b10 <
0>
#720000
0!
0*
#725000
1!
1*
0.
b11 <
0>
#730000
0!
0*
#735000
1!
1*
1.
b100 <
0>
#740000
0!
0*
#745000
1!
1*
0.
b0 <
0>
b0 R
#750000
0!
0*
#755000
1!
1*
0.
b1 <
0>
b10 Q
b0 R
b10 T
#760000
0!
0*
#765000
1!
1*
0.
b10 <
0>
b1 R
#770000
0!
0*
#775000
1!
1*
0.
b11 <
0>
b10 R
b10 V
#780000
0!
0*
#785000
1!
1*
1.
b100 <
0>
#786000
b1111 #
b1010 %
b1111 ,
b11 Q
b0 R
#790000
0!
0*
#795000
1!
1*
0.
b0 <
0>
b1111 H
b1 R
#800000
0!
0*
#805000
1!
1*
0.
b1111 0
b1111 1
b1 <
0>
b1111 G
b10 R
#810000
0!
0*
#815000
1!
b0 #
1*
b0 ,
0.
13
b1111 4
b1111 5
b1111 6
b10 <
0>
b0 H
b11 R
b100 S
b0 T
#820000
0!
0*
#825000
1!
b1111 $
1*
b1111 -
0.
b0 0
b0 1
b11 <
0>
b0 G
#830000
0!
0*
#835000
1!
1*
1.
b0 5
b100 <
0>
#840000
0!
0*
#845000
1!
1*
0.
b1110 4
b0 <
0>
b1 Q
b0 R
#850000
0!
0*
#855000
1!
b1110 $
1*
b1110 -
0.
b1 <
0>
b1 R
b1 T
#860000
0!
0*
#865000
1!
1*
0.
b10 <
0>
#870000
0!
0*
#875000
1!
1*
0.
b11 <
0>
#880000
0!
0*
#885000
1!
1*
1.
b100 <
0>
#890000
0!
0*
#895000
1!
1*
0.
b1101 4
b0 <
0>
b0 R
#900000
0!
0*
#905000
1!
b1101 $
1*
b1101 -
0.
b1 <
0>
b1 R
b10 T
#910000
0!
0*
#915000
1!
1*
0.
b10 <
0>
#920000
0!
0*
#925000
1!
1*
0.
b11 <
0>
#930000
0!
0*
#935000
1!
1*
1.
b100 <
0>
#940000
0!
0*
#945000
1!
1*
0.
b1100 4
b0 <
0>
b0 R
#950000
0!
0*
#955000
1!
b1100 $
1*
b1100 -
0.
b1 <
0>
b1 R
b11 T
#960000
0!
0*
#965000
1!
1*
0.
b10 <
0>
#970000
0!
0*
#975000
1!
1*
0.
b11 <
0>
#980000
0!
0*
#985000
1!
1*
1.
b100 <
0>
#990000
0!
0*
#995000
1!
1*
0.
b1011 4
b0 <
0>
b0 R
